TakeHome Exercise 2: Drug Abuse in Thailand – IS415-GA
…
trafficking_cases_offenses <- drug_offenses %>% 
  select(1:2, 4) %>% 
  mutate(types_of_drug_offenses = "trafficking_cases") %>% 
  pivot_wider(
    names_from = fiscal_year, 
    values_from = trafficking_cases
  )

drug_use_cases_offenses

# A tibble: 77 × 8
   province_en  types_of_drug_offenses `2017` `2018` `2019` `2020` `2021` `2022`
   <chr>        <chr>                   <int>  <int>  <int>  <int>  <int>  <int>
 1 Bangkok      drug_use_cases          11871  16480  15067   9724   9625   2755
 2 Chai Nat     drug_use_cases            200    422    957    822    763    617
 3 Nonthaburi   drug_use_cases            553   1661   1719    937   3202    809
 4 Pathum Thani drug_use_cases            450   1823   2994   1192   1747   1599
 5 Phra Nakhon… drug_use_cases            378   1123   2470   1745   1766   1298
 6 Bueng Kan    drug_use_cases            727   1850   2262   1487   1925    985
 7 Samut Prakan drug_use_cases            820   3015   4602   1816   2515   1953
 8 Saraburi     drug_use_cases             69    628    843    744   1106    839
 9 Sing Buri    drug_use_cases            127    402    582    309    683    493
10 Ang Thong    drug_use_cases            208    660    657    423    755    784
# ℹ 67 more rows

trafficking_cases_offenses

# A tibble: 77 × 8
   province_en  types_of_drug_offenses `2017` `2018` `2019` `2020` `2021` `2022`
   <chr>        <chr>                   <int>  <int>  <int>  <int>  <int>  <int>
 1 Bangkok      trafficking_cases         950    623    428    352    250    233
 2 Chai Nat     trafficking_cases         210    151    101    117     97    142
 3 Nonthaburi   trafficking_cases         118    113     72     80     60     31
 4 Pathum Thani trafficking_cases          83     68     23     69    106     80
 5 Phra Nakhon… trafficking_cases         164    164    124    167    112     72
 6 Bueng Kan    trafficking_cases         261    234    151    174    142    106
 7 Samut Prakan trafficking_cases         201    112     76    136    159    199
 8 Saraburi     trafficking_cases          58     45     36     50     69     35
 9 Sing Buri    trafficking_cases          41     44     33     48     40     26
10 Ang Thong    trafficking_cases          51     61     56     46     51     75
# ℹ 67 more rows

thailand_population_sf

Simple feature collection with 77 features and 4 fields
Geometry type: GEOMETRY
Dimension:     XY
Bounding box:  xmin: -313055.3 ymin: 621843.5 xmax: 568269.6 ymax: 2271054
Projected CRS: WGS 84 / UTM zone 48N
# A tibble: 77 × 5
   ADM1_EN                         geometry Shape_Area_Polygon   T_TL ADM1_PCODE
 * <chr>                     <GEOMETRY [m]>              [m^2]  <dbl> <chr>     
 1 Amnat Charoen POLYGON ((495707.6 180030…              3260. 1.80e5 TH37      
 2 Ang Thong     POLYGON ((-2670.024 16412…               949. 2.01e5 TH15      
 3 Bangkok       POLYGON ((25835.57 154709…              1579. 1.15e7 TH10      
 4 Bueng Kan     POLYGON ((331560.4 204060…              3990. 2.84e5 TH38      
 5 Buri Ram      POLYGON ((278292.9 174736…             10062. 8.88e5 TH31      
 6 Chachoengsao  POLYGON ((74303.68 154862…              5181. 7.31e5 TH24      
 7 Chai Nat      POLYGON ((-24181.19 17098…              2502. 2.10e5 TH18      
 8 Chaiyaphum    POLYGON ((133164.1 185269…             12642. 6.94e5 TH36      
 9 Chanthaburi   MULTIPOLYGON (((201062.9 …              6414. 4.20e5 TH22      
10 Chiang Mai    POLYGON ((-72871.25 22361…             22400. 1.79e6 TH50      
# ℹ 67 more rows
…
spt

spacetime ────

Context:`data`

77 locations `province_en`

6 time periods `year`

── data context ────────────────────────────────────────────────────────────────

# A tibble: 462 × 3
   province_en  year     DUPC
 * <chr>       <dbl>    <dbl>
 1 Bangkok      2017 0.00103 
 2 Bangkok      2018 0.00144 
 3 Bangkok      2019 0.00131 
 4 Bangkok      2020 0.000847
 5 Bangkok      2021 0.000838
 6 Bangkok      2022 0.000240
 7 Chai Nat     2017 0.000951
 8 Chai Nat     2018 0.00201 
 9 Chai Nat     2019 0.00455 
10 Chai Nat     2020 0.00391 
# ℹ 452 more rows
…
To switch between the data and geometry contexts, we use activate() from sfdep:

activate(spt, "data")

spacetime ────

Context:`data`

77 locations `province_en`

6 time periods `year`

── data context ────────────────────────────────────────────────────────────────

# A tibble: 462 × 3
   province_en  year     DUPC
 * <chr>       <dbl>    <dbl>
 1 Bangkok      2017 0.00103 
 2 Bangkok      2018 0.00144 
 3 Bangkok      2019 0.00131 
 4 Bangkok      2020 0.000847
 5 Bangkok      2021 0.000838
 6 Bangkok      2022 0.000240
 7 Chai Nat     2017 0.000951
 8 Chai Nat     2018 0.00201 
 9 Chai Nat     2019 0.00455 
10 Chai Nat     2020 0.00391 
# ℹ 452 more rows
…
Context:`geometry`

77 locations `province_en`

6 time periods `year`

── geometry context ────────────────────────────────────────────────────────────

Simple feature collection with 77 features and 1 field
Geometry type: GEOMETRY
Dimension:     XY
Bounding box:  xmin: -313055.3 ymin: 621843.5 xmax: 568269.6 ymax: 2271054
Projected CRS: WGS 84 / UTM zone 48N
# A tibble: 77 × 2
   province_en                                                          geometry
 * <chr>                                                           <POLYGON [m]>
 1 Bangkok                  ((25835.57 1547090, 25877.6 1547067, 25943.05 15470…
 2 Chai Nat                 ((-24181.19 1709887, -24055.04 1709874, -23850.75 1…
 3 Nonthaburi               ((-3347.358 1563866, -3349.975 1563780, -3350.358 1…
 4 Pathum Thani             ((56466.67 1578825, 56464.46 1578591, 56470.24 1578…
 5 Phra Nakhon Si Ayutthaya ((16427.34 1625110, 16443.28 1625108, 16467.33 1625…
 6 Bueng Kan                ((331560.4 2040603, 331689.4 2040595, 331900.1 2040…
 7 Samut Prakan             ((38002.87 1520530, 38009.33 1520494, 38079.34 1520…
 8 Saraburi                 ((112824.3 1669647, 112830.8 1669647, 112857.4 1669…
 9 Sing Buri                ((1875.759 1673463, 1947.294 1673428, 2058.61 16733…
10 Ang Thong                ((-2670.024 1641280, -2648.057 1641233, -2641.796 1…
# ℹ 67 more rows
…
