IS415-GA - Hands-on Exercise 1
…
ℹ Use `spec()` to retrieve the full column specification for this data.
ℹ Specify the column types or set `show_col_types = FALSE` to quiet this message.

After importing the data file into R, it is important for us to examine if the data file has been imported correctly.

The code chunk below shows list() of Base R instead of glimpse() is used to do the job.

list(listings)

[[1]]
# A tibble: 3,540 × 75
       id listing_url            scrape_id last_scraped source name  description
    <dbl> <chr>                      <dbl> <date>       <chr>  <chr> <chr>      
 1  71609 https://www.airbnb.co…   2.02e13 2024-06-29   previ… Ensu… For 3 room…
 2  71896 https://www.airbnb.co…   2.02e13 2024-06-29   city … B&B … <NA>       
 3  71903 https://www.airbnb.co…   2.02e13 2024-06-29   city … Room… Like your …
 4 275343 https://www.airbnb.co…   2.02e13 2024-06-29   city … 10mi… **IMPORTAN…
 5 275344 https://www.airbnb.co…   2.02e13 2024-06-29   city … 15 m… Lovely hom…
 6 289234 https://www.airbnb.co…   2.02e13 2024-06-29   previ… Book… This whole…
 7 294281 https://www.airbnb.co…   2.02e13 2024-06-29   city … 5 mi… I have 3 b…
 8 324945 https://www.airbnb.co…   2.02e13 2024-06-29   city … Comf… **IMPORTAN…
 9 330095 https://www.airbnb.co…   2.02e13 2024-06-29   city … Rela… **IMPORTAN…
10 344803 https://www.airbnb.co…   2.02e13 2024-06-29   city … Budg… Direct bus…
# ℹ 3,530 more rows
# ℹ 68 more variables: neighborhood_overview <chr>, picture_url <chr>,
#   host_id <dbl>, host_url <chr>, host_name <chr>, host_since <date>,
#   host_location <chr>, host_about <chr>, host_response_time <chr>,
#   host_response_rate <chr>, host_acceptance_rate <chr>,
#   host_is_superhost <lgl>, host_thumbnail_url <chr>, host_picture_url <chr>,
#   host_neighbourhood <chr>, host_listings_count <dbl>, …
…
